E:\EXIA BOULOT\DOC Prosit - CER\semestre 2\Projet java\Application\routing\src\main\java\routing\Request.java
E:\EXIA BOULOT\DOC Prosit - CER\semestre 2\Projet java\Application\routing\src\main\java\routing\Router.java
E:\EXIA BOULOT\DOC Prosit - CER\semestre 2\Projet java\Application\routing\src\main\java\routing\Route.java
